{
  // id for cache file syntax, how the cdn paths and other per unique selector identifyable path/file could be saved with validation and performance info
  // namespace: for per-app/hook or something groupable, event driven overwritable functions
  // category: just more grouping, optional
  // path: just using the cdn hash and as namespace cdn would be perfect
  // hash: or when saving something by it's id,
  "<namespace>:<category>:<path>": {},
  "<namespace>:<category>:<hash>": {},
  "cdn:media:media/flood-logo.png": {
    "path": "/absolute-path/to/file.ext",
    "last-modified": "2018-01-02 00:00:00",
    "header": {
      "last-modified": "2018-01-02 00:00:00"
      // when not set, and not false, uses last-modified by default
    },
    "validation": {
      // specifies how the file is revalidated, `live` direclty fetches the date from the harddisk
      "type": "live"
    }
  }
}
// folder structure:
//   /
//   /asset
//   /asset/media
//   /asset/media/flood-logo.png
//   /asset/style.css
//   /asset/exec.js
//
//
// For ContemtManager of Hydro
//   /data/content-definition
//   /data/content-definition/block/intro.json
//   /data/content-definition/exec